Resource Usage Report
Part: lcmxo2_7000he-5

Register bits: 433 of 6864 (6%)
PIC Latch:       0
I/O cells:       8

Details:
CCU2D:          54
EHXPLLJ:        1
FD1P3AX:        18
FD1P3BX:        33
FD1P3DX:        288
FD1S3AX:        32
FD1S3AY:        1
FD1S3BX:        1
FD1S3DX:        60
GSR:            1
INV:            13
L6MUX21:        1
OB:             1
OBZ:            7
ORCALUT4:       462
OSCH:           1
PFUMX:          5
PUR:            1
VHI:            11
VLO:            12
